Gaps in `adapt_timeseries()` • timefully
…
short_month <- timefully::dtf |> filter(month(datetime) == 4)

new_range <- adapt_timeseries(
  short_month,
  start_date = as.Date("2025-04-15"),
  end_date = as.Date("2025-05-15"),
  tzone = "Europe/Paris",
  fill_gaps = FALSE
)

new_range |>
  filter(month(datetime) == 5)
#> # A tibble: 1,440 × 3
#>    datetime            solar building
#>    <dttm>              <dbl>    <dbl>
#>  1 2025-05-01 00:00:00    NA       NA
#>  2 2025-05-01 00:15:00    NA       NA
#>  3 2025-05-01 00:30:00    NA       NA
#>  4 2025-05-01 00:45:00    NA       NA
#>  5 2025-05-01 01:00:00    NA       NA
#>  6 2025-05-01 01:15:00    NA       NA
#>  7 2025-05-01 01:30:00    NA       NA
#>  8 2025-05-01 01:45:00    NA       NA
#>  9 2025-05-01 02:00:00    NA       NA
#> 10 2025-05-01 02:15:00    NA       NA
#> # ℹ 1,430 more rows
…
