Adapt time-series dataframe to timezone, date range and fill gaps — adapt_timeseries • timefully
…
fill_gaps
boolean, whether to fill gaps based on
same weekday and hour from past data (See fill_from_past function).

    Value

    tibble

    Examples

# Example data set
print(dtf)
#> # A tibble: 35,040 × 3
#>    datetime            solar building
#>    <dttm>              <dbl>    <dbl>
#>  1 2023-01-01 00:00:00     0    1.31 
#>  2 2023-01-01 00:15:00     0    1.21 
#>  3 2023-01-01 00:30:00     0    1.12 
#>  4 2023-01-01 00:45:00     0    1.02 
#>  5 2023-01-01 01:00:00     0    0.927
#>  6 2023-01-01 01:15:00     0    0.890
#>  7 2023-01-01 01:30:00     0    0.852
#>  8 2023-01-01 01:45:00     0    0.814
#>  9 2023-01-01 02:00:00     0    0.777
#> 10 2023-01-01 02:15:00     0    0.774
#> # ℹ 35,030 more rows
…
